  DELETE
    FROM FISDBC1.APT_APRVL_TRAN_V APT
   WHERE APT.APRVL_TYP = 'P'
     AND NOT EXISTS
        (SELECT 1
           FROM FISDBC1.APL_APRVL_LVL_V  APL
               ,FISDBC1.DOC_DOCUMENT_V   DOC
          WHERE DOC.DOC_TYP            = APT.DOC_TYP
            AND APL.FK_APV_SEQ_NBR     = DOC.SEQ_NBR
            AND APL.FK_APV_USER_ID     = APT.USER_ID
            AND APL.FK_APV_APV_TPLT_CD = APT.APV_TPLT_CD
            AND APL.LEVEL_SEQ_NBR      = APT.LEVEL_SEQ_NBR
            AND APL.APRVL_ID           = APT.APRVL_ID)
