  DELETE
    FROM FISDBC1.APH_APRVL_HDR_V APH
   WHERE APH.APRVL_IND = 'N'
     AND APH.SEQ_NBR   = 003
     AND NOT EXISTS
        (SELECT 1 FROM FISDBC1.IVH_INV_HDR_V
                 WHERE APH.DOC_NBR = DOC_NBR     )
  ;
  DELETE
    FROM FISDBC1.APH_APRVL_HDR_V APH
   WHERE APH.APRVL_IND = 'N'
     AND APH.SEQ_NBR   = 004
     AND NOT EXISTS
        (SELECT 1 FROM FISDBC1.POS_PO_HDR_SEQ_V
                 WHERE APH.DOC_NBR      = FK_POH_PO_NBR
                   AND APH.CHNG_SEQ_NBR = CHNG_SEQ_NBR  )
  ;
  DELETE
    FROM FISDBC1.APH_APRVL_HDR_V APH
   WHERE APH.APRVL_IND = 'N'
     AND APH.SEQ_NBR   = 005
     AND NOT EXISTS
        (SELECT 1 FROM FISDBC1.RQT_RQST_V
                 WHERE APH.DOC_NBR = RQST_CD     )
  ;
  DELETE
    FROM FISDBC1.APH_APRVL_HDR_V APH
   WHERE APH.APRVL_IND = 'N'
     AND APH.SEQ_NBR   = 007
     AND NOT EXISTS
        (SELECT 1 FROM FISDBC1.JLH_JRNL_HDR_V
                 WHERE APH.DOC_NBR = DOC_NBR     )
  ;
  DELETE
    FROM FISDBC1.APH_APRVL_HDR_V APH
   WHERE APH.APRVL_IND = 'N'
     AND APH.SEQ_NBR   = 012
     AND NOT EXISTS
        (SELECT 1 FROM FISDBC1.JLH_JRNL_HDR_V
                 WHERE APH.DOC_NBR = DOC_NBR     )
  ;
  DELETE
    FROM FISDBC1.APH_APRVL_HDR_V APH
   WHERE APH.APRVL_IND = 'N'
     AND APH.SEQ_NBR   = 013
     AND NOT EXISTS
        (SELECT 1 FROM FISDBC1.TRP_TRIP_V
                 WHERE APH.DOC_NBR = TRIP_NBR    )
  ;
  DELETE
    FROM FISDBC1.APH_APRVL_HDR_V APH
   WHERE APH.APRVL_IND = 'N'
     AND APH.SEQ_NBR   = 014
     AND NOT EXISTS
        (SELECT 1 FROM FISDBC1.RCN_RECON_V
                 WHERE APH.DOC_NBR = FK_EVT_EVENT_NBR)
  ;
  DELETE
    FROM FISDBC1.APH_APRVL_HDR_V APH
   WHERE APH.APRVL_IND = 'N'
     AND APH.SEQ_NBR   = 015
     AND NOT EXISTS
        (SELECT 1 FROM FISDBC1.ADV_ADVNC_V
                 WHERE APH.DOC_NBR = ADVNC_NBR   )
  ;
  DELETE
    FROM FISDBC1.APH_APRVL_HDR_V APH
   WHERE APH.APRVL_IND = 'N'
     AND APH.SEQ_NBR   = 016
     AND NOT EXISTS
        (SELECT 1 FROM FISDBC1.EXP_EXPNS_V
                 WHERE APH.DOC_NBR = EXPNS_NBR   )
  ;
  DELETE
    FROM FISDBC1.APH_APRVL_HDR_V APH
   WHERE APH.APRVL_IND = 'N'
     AND APH.SEQ_NBR   = 017
     AND NOT EXISTS
        (SELECT 1 FROM FISDBC1.TRI_TRVL_INV_V
                 WHERE APH.DOC_NBR = DOC_NBR     )
  ;
  DELETE
    FROM FISDBC1.APH_APRVL_HDR_V APH
   WHERE APH.APRVL_IND = 'N'
     AND APH.SEQ_NBR   = 021
     AND NOT EXISTS
        (SELECT 1 FROM FISDBC1.TFH_TOF_HDR_V
                 WHERE APH.DOC_NBR = DOC_NBR     )
  ;
  DELETE
    FROM FISDBC1.APH_APRVL_HDR_V APH
   WHERE APH.APRVL_IND = 'N'
     AND APH.SEQ_NBR   = 022
     AND NOT EXISTS
        (SELECT 1 FROM FISDBC1.TFH_TOF_HDR_V
                 WHERE APH.DOC_NBR = DOC_NBR     )
